<?xml version="1.0" encoding="UTF-8"?>
<CustomTab xmlns="http://soap.sforce.com/2006/04/metadata">
    <customObject>true</customObject>
    <description>Strategy records shall capture the following basic information about a Company.</description>
    <mobileReady>false</mobileReady>
    <motif>Custom92: Ship</motif>
</CustomTab>
